<?xml version="1.0" encoding="utf-8"?>
<!-- Generator: Adobe Illustrator 19.0.0, SVG Export Plug-In . SVG Version: 6.00 Build 0)  -->
<svg version="1.1" id="Layer_1" xmlns="http://www.w3.org/2000/svg" xmlns:xlink="http://www.w3.org/1999/xlink" x="0px" y="0px"
	 viewBox="0 0 400 400" style="enable-background:new 0 0 400 400;" xml:space="preserve">
<path id="XMLID_313_" style="fill:#1D1D1D;" d="M317.1,347.6c2.6-0.9,4.9-2,6-5c0.7-2,2-3.7,4.8-3.4c2.8,0.2,4.5,1.6,5.6,4
	c0.6,1.4,1.1,2.9,1,4.4c0,7.4-0.1,14.9-1.5,22.2c-0.8,4.3-10.1,9.6-14.2,8.4c-0.5-0.1-1.1-0.7-1.2-1.1c-0.3-0.8,0.3-1.3,1-1.7
	c6.2-3.4,5.8-8.8,4.5-14.7c-0.8-3.5-2.4-6.9-2-10.7c-3.5,0-4.9,1.3-3.6,4.7c0.7,1.8,0.5,3.1-1.2,4.2c-10.2,7-20.4,14.1-31.3,20.2
	c-2.2,1.2-4.5,2.2-7.1,2.6c10.3,1,20.5,1.3,30.7,0.9c10.2-0.4,20.4-0.5,30.5-0.3c0.8,0,2-0.4,2,1c0,1.4-0.8,2.3-2.3,2.3
	c-3.8,0-7.6,0.1-11.4,0.1c-6.5,0-13,0-19.6,0.5c4.9,0,9.6,1.2,14.4,1.4c1.3,0.1,2.7,0.4,4,0.7c1,0.2,1.8,0.8,1.5,1.8
	c-0.2,1-1.2,1.2-2.2,1.1c-8.9-1-17.9-1.3-26.6-3.1c-5.6-1.2-11.1-2.7-16.9-2.5c-7.8,0.2-11.5-5.7-15.4-10.8
	c-3.3-4.2-4.6-9.5-5.9-14.6c-2.4-8.9-4.7-17.8-7.1-26.6c-0.3-1.2,0.1-3-2.3-2.3c-8.2,2.4-16.7,2.8-24.9,4.8c-6,1.4-6.7,3.1-5.7,9
	c1.3,8,5,15.1,8.2,22.4c2.4,5.5,2.3,5.6-3.8,6.5c-0.8,0.1-2-0.4-2.1,1c-0.1,1.2,0.3,2.1,1.7,2.8c3.8,1.8,7.5,3.9,11.2,5.9
	c0.9,0.5,2.1,1,1.8,2.3c-0.2,1.3-1.5,1.4-2.5,1.6c-11.7,2.1-23.5,2.6-35.4,1.8c-1.4-0.1-3.5,0-3.7-1.8c-0.2-1.8,1.9-2.1,3.2-2.6
	c5.8-2.5,11.6-5,17.8-6.5c1.3-0.3,2.7-0.5,2.5-2.5c-0.2-2.1-1.6-1.8-3-1.7c-4.5,0.5-6.2-1.8-7.5-5.9c-3.6-11.3-6.3-22.7-7.2-34.5
	c-1-12.3,4.9-18.1,17.2-17.8c3.1,0.1,7.2,1.8,9.2-0.2c1.7-1.8-0.3-5.7-0.5-8.7c-0.5-7,0.3-14,1.3-20.9c0.3-2.2,0.2-3-2.2-3
	c-8,0-14.7-4.3-21.7-7.2c-5.8-2.4-8.7-8-9.2-14.2c-0.4-5.3,3.9-8.4,7.2-11.6c2.5-2.4,2.2-3.8,0.3-6.1c-2.8-3.5-5.8-6.6-9.1-9.8
	c-3.3,5.1-8,8.5-13.5,10.5c-2.7,1-5.6,1.4-8.3-0.5c-0.9-0.6-1.6-2.7-3.1-0.7c-1.1,1.4-3.1,1.6-2.5,4.6c1.8,8.9,4.9,17.5,6,26.5
	c1.5,12.6,2.9,25.3,4.5,37.9c1.1,8.4,2.3,16.8,4.5,24.9c0.9,3.4,2.2,6.6,4.9,9.1c0.7,0.6,1.5,1.3,1.2,2.3c-0.4,1.1-1.5,1.2-2.7,1.2
	c-3.5,0.2-7,0.4-10.4,0.8c-1.3,0.1-3.5-1.2-3.8,1.1c-0.3,2.2-0.3,5.3,2.1,6.3c4.2,1.8,5.8,4.8,6.1,9.1c0.4,4.7,2.4,8.7,6.8,11.2
	c2,1.1,3.8,2.4,5.7,3.8c0.9,0.7,2.5,1.1,2,2.6c-0.5,1.7-1.9,1-3,0.8c-2.1-0.3-4.2-0.6-6.3-0.8c-1.7-0.2-3.4,0.2-5-0.3
	c-3.6-1.1-7.5,3.2-10.1,0.3c-2.1-2.3-2.3-6.4-3.4-9.9c-0.9,3.3-1.5,6.5-2.5,9.6c-0.5,1.5-0.5,3-4,1.9c-5.8-1.8-13-5.2-18.7,1.4
	c-0.3,0.4-1.1,0.5-1.7,0.4c-8.6-0.8-17,3.1-25.8,1.4c-4.1-0.8-8.6-0.7-12.7,0.5c-4.5,1.4-7.4-2.1-11.1-3.1c-2.1-0.6-0.2-2.4,1.1-3.1
	c5.6-2.8,11.6-3.3,17.7-2.5c5.9,0.7,11.7,1.5,17.6,2.4c2.8,0.4,4.2-0.3,5-3.3c1.8-6.8,2.6-13.7,3.5-20.6c0.4-3.3,1.5-3.3,3.6-1.3
	c0.7-2.5-0.7-4.8-0.9-7.2c-0.3-2.7-3-1.4-4.5-1.4c-12.3,0.7-24.5,2.3-36.9,1.7c-8.4-0.4-16.5-2.2-23.2-7.9c-4.8-4.1-8-9-7.7-15.7
	c0.2-4.7,2.7-7.9,6.5-10.3c0.8-0.5,1.6-1.2,2.4-0.3c1,1,0.3,1.8-0.3,2.8c-3.6,6.2-2.7,9.2,3.7,12c6.8,2.9,14,3.9,21.3,3.5
	c6.2-0.4,10.5-4.4,14.2-8.9c14.8-17.7,22.5-38.8,28.1-60.7c1.7-6.7,2.4-13.7,3.5-20.5c0.4-2.5-0.5-4-2.4-4.6
	c-2.1-0.7-3.4,1.4-3.6,2.8c-1.2,7.2-4.2,13.8-6.2,20.7c-1,3.5,0.9,7.6-0.3,11.6c-1.8,6-5.8,10-10.3,9.8c-5.5-0.3-8.1-4.5-5.8-9.4
	c1.9-4,4.9-7.1,8.7-9.1c3.6-1.8,5.2-4.7,6.4-8.2c1.6-4.3,3.5-8.5,4-13.8c-6.3,2.6-12.1,2.8-17.8-0.4c-1.6-0.9-2.1,0.7-2.9,1.5
	c-7.4,6.9-16.6,6.4-22.9-1.4c-9.1,7.2-18.7,6.4-26.1-2.4c-1.4-1.6-2.4-0.7-3.5-0.5c-7.3,1.1-12.6-2-17-7.4c-1.3-1.6-1.6-3.4,1-3.4
	c4.7,0,7-3.4,9.2-6.5c9.2-13.1,14.7-28.1,20.1-42.9c4.6-12.6,8.5-25.4,12.9-38.1c3.6-10.2,9.8-18.1,19.3-23.9
	c3.5-2.1,4.7-7.1,6.1-10.9c1.5-4.1,3.7-6.8,7.9-7.7c4.2-0.9,7,1,9.5,4.5c2.3,3.1,5.9,5.2,7,9.3c0.1,0.5,1.2,0.8,1.9,1
	c18.2,6.4,27.5,20.3,31.6,38.3c2.2,9.8-4.7,25.4-13.2,30.7c-1.9,1.2-3.6,2.1-5.5-1.2c-1.2,6.7,0.2,12.3,2.3,17.8
	c0.3,0.7,0.8,1.5,1.4,1.7c7.7,2.7,12.2,9.9,19.5,13.7c13.4,7,25,16.6,33.5,29.5c2.3,3.5,3.2,7.1,3,11.1c-0.2,3.4,1.3,4.3,4.4,3.7
	c9.5-1.8,16.6-6.4,19-16.4c1.1-4.5,3.9-8.4,3.1-13.5c-0.4-2.7,2.2-3.8,4.4-4.6c3.7-1.4,7.3-2.8,11.1-3.7c2.2-0.5,2.6-1.9,2.7-3.5
	c0.1-2.1-1.9-1.7-3-1.9c-6.2-0.9-11.3-3.8-15.9-8.1c-1.8-1.7-4.2-2.8-6.3-4.2c-6.3-4.3-7.1-9.2-2.7-15.4c1.9-2.7-0.3-9.3-3.4-10.5
	c-2.4-0.9-6.3-0.8-6.7-3.7c-0.3-2.7,2.3-5.1,4.5-7.1c1.2-1.1,2.5-2.6,3.9-3c5.4-1.7,5-5.9,4.8-10c-0.6-11.4-1.1-22.7-1.9-34.1
	c-0.2-3.6,1.6-4,4.3-3.9c10.2,0.1,20.4,0.2,30.6,0.3c5.2,0,10.4,0.3,15.5-0.8c3.2-0.6,4.7,0.2,4.8,3.9c0.6,11.5,1.6,23,3.5,34.4
	c0.5,2.6,1.3,4.2,4.2,5c3,0.9,5.9,2.3,8.1,4.7c2.2,2.5,2.5,5.5-0.7,6.6c-8.5,2.9-5,10.3-6.5,15.8c-0.2,0.7,0.1,1.1,0.7,1.4
	c4.9,2.4,4.1,6.7,3,10.6c-1.3,4.2-4.7,6.2-9.1,6c-1.5-0.1-2.5,0.5-3.4,1.7c-4.9,5.7-11.1,9.2-18.6,10.4c-1.3,0.2-2.8,0.4-2.9,2.3
	c-0.1,2,1.2,2.5,2.7,3.1c5.4,2,9.9,5.1,13.4,9.8c2.4,3.3,3.3,5.9,1.4,10.5c-3.2,7.5-4.8,15.9-6,24.1c-2.7,18.2-1.5,36.2,4.8,53.7
	c0.5,1.4,1.1,2.8,1.9,4.1c1.7,2.9,3.5,5.7-2.2,5.7c-1.1,0-1.3,1-1.5,1.9c-2.2,8.9-1.8,17.7,1.1,26.4c0.8,2.5,2.3,3,4.9,1.9
	c5.7-2.6,10.5-6.5,15.5-10.2c3-2.3,6.1-4.6,9.3-6.5C313.7,341.7,315.4,342.5,317.1,347.6z M267.2,268.7c0.2-0.3,0.4-0.7,0.6-1
	c-0.1,0-0.3-0.1-0.4-0.1C267.4,267.9,267.3,268.3,267.2,268.7c-0.7-0.2-1,0.2-1,0.8c-5.7,3.4-11.7,6.4-12.1,15.2
	c5.2-4.8,9.2-9.5,12.2-15.1C266.6,269.3,266.9,269,267.2,268.7z M239.8,244.9c1-0.1,2.6,0.5,2.9-0.5c0.3-1.3-0.5-2.7-1.8-3.5
	C239.5,242.3,239.8,243.6,239.8,244.9c-0.1,0.1-0.1,0.3-0.2,0.4C239.7,245.2,239.7,245.1,239.8,244.9z M263.7,252.1
	c-0.1-0.2-0.3-0.4-0.4-0.5c0,0-0.2,0.1-0.3,0.2c0.2,0.1,0.4,0.3,0.6,0.4c1.9,6.4-3.6,11.1-4.1,17.3c3.6-2,6.2-5,8.5-8
	c1.8-2.3,5.4-4.9,4.1-7.5C271,252,266.7,252.3,263.7,252.1z M248,319.9c0.2,0.1,0.3,0.2,0.5,0.4c-0.1-0.2-0.2-0.3-0.4-0.5
	c-1.9-8.5-2-17.1-2-25.7c0-3.6-1.4-7.1-2.9-10.4c-1.8-4.1-4.8-0.6-7.1-1.1c-1.6-0.3-3.2,0.5-3.6,2.7c-1.3,8.6-1.2,17.2-0.7,25.9
	c0.1,1.7-0.2,4.4,2.2,5C238.7,317.2,243,319.8,248,319.9z M224.4,174.7c3.3,3.1,7.5,3.3,11.6,3.5c15.5,0.6,30.9,0,46.2-2.8
	c4.9-0.9,9.9-1.7,14.4-4.1c1.9-1,2.3-2.6,1.5-4.2c-1-2-3.2-3.2-5.2-3c-1.6,0.2-0.7,2.2-0.4,3.4c0.4,1.2,0.2,2.2-1.2,2.3
	c-1.7,0.2-1.9-1-2.3-2.2c-3-9.1-4.4-18.5-5.2-28c-0.4-4.7-0.7-9.4-1-14c-0.3-4.3-2.6-5.9-6.6-4.9c-3.2,0.8-6.3,0.8-9.5,0.8
	c-9.9-0.2-19.7-0.6-29.6-0.8c-1.6,0-4-0.3-3.4,2.3c1.3,6,0.2,12.2,1.1,18.2c1.2,8.2,0.3,16.4,0.6,24.6c0,1.1-0.1,2.6-1.5,2.3
	c-5.6-1.2-7.1,3.2-9.6,6.5c-0.1,0.2-0.2,0.4-0.3,0.5C224,174.9,224.2,174.8,224.4,174.7z M183.2,347.3c-1.9-3.5-3.5-6.7-4.3-10.2
	c-2.8-12.6-4.4-25.3-5.8-38.1c-1.3-11.9-2.4-23.8-5.3-35.4c-2.8-11.1-5.2-22.4-7.3-33.6c-0.8-4.5-0.8-9.3,1.2-13.9
	c1.1-2.6,1.6-5.9-1.3-7.8c-2.9-1.9-5.4-0.1-7.6,1.9c-0.1,0.1-0.2,0.2-0.3,0.3c-1.4,1.9-2.7,1.7-4.5,0.2c-2.1-1.7-4.5-3-7.4-3.1
	c-2.4-0.1-4.8,0.3-6.1,2.3c-1.4,2.1,0.4,4.1,1.6,5.6c1.9,2.4,4.1,4.4,6.2,6.6c3.2,3.4,5,7.3,5.3,12.1c1,15-2.3,29.2-6.5,43.3
	c-5.8,19.4-13.4,37.9-27.3,53.1c-2.8,3-5.6,6.5-9.7,7.3c-13.3,2.4-26,1.8-36.2-9.2c0.3,6.2,3.7,10.5,8.3,13.9
	c6,4.5,13.1,6.1,20.4,6.4c12,0.5,23.9-1.7,35.9-1.8C149.3,347.2,166,347.3,183.2,347.3z M48.7,234.4c4.7,5.3,8.9,6.4,15.3,3.8
	c1.7-0.7,2.3-0.4,3.1,1.1c5.5,9.6,15.9,10.6,23.2,2.1c1.2-1.4,2.2-1.9,3.3,0.2c5.1,9.4,13.9,9.7,20.2,0.7c1.1-1.6,1.9-2.1,3.5-0.7
	c2.2,2,5,2.7,7.9,3.1c7.1,0.9,10.8-2.4,10.4-9.2c-0.4-7.4-3.1-14.5-4.3-21.8c-0.6-3.5-0.2-6,3.3-8c5.4-3.2,5.8-5.9,2.9-11.2
	c-1.4-2.7-3.2-4.5-6.6-4.3c-3.4,0.3-6.5-1.1-9.6-2.3c-1.4-0.5-2.7-1.1-4.3-1c-5.7,0.4-10.7-1.4-14.7-5.5
	c-8.8-9.1-10.1-20.2-9.1-32.1c0.4-4.7,2.1-9.1,2.8-13.7c-3.1,3.2-4.6,7.1-5.9,11.1c-2.9,8.6-5.4,17.2-8.3,25.8
	c-5.8,17-11.8,33.9-21,49.4C57.7,227,54.7,232.1,48.7,234.4z M107.4,181.2c-0.2-4.6,0.2-8.6,2.2-12.2c5.4-9.5,12.3-17.8,20.1-25.4
	c0.6-0.5,1.2-1.1,2-0.6c0.7,0.4,1.1,1.1,1,1.9c-0.1,0.7-0.6,1.4-0.6,2.2c-0.1,0.8-1.1,1.7-0.2,2.5c1,0.9,1.9,0,2.9-0.4
	c3.1-1.3,4.1-4.2,5.7-6.8c1.3-2.3,0.2-6.5,6.3-3.8c6.7,3.1,12.5,6.2,16.4,12.4c1.6,2.4,2.6,5.2,4.1,8.1c0.5-1.1,1.1-1.9,1-2.5
	c-0.9-6.4-2.4-12.5-5.8-18.1c-4.1-6.6-9.1-11.8-16.1-15.8c-4.5-2.6-12.5-1.9-12.9-10.1c0-0.6-1.2-1.7-1.9-1.8
	c-2.1-0.2-2.6-1.5-3.3-3.2c-0.9-2.1-2.5-3.8-5.3-3.5c-2.9,0.3-5.6,2-5.7,4.4c-0.1,3.1-2.3,4.5-3.4,6.7c-0.7,1.6-2.7,3.5,0.3,4.8
	c3.2,1.4,7.1,2.1,5.3,7.2c-0.1,0.2,0.8,0.8,1.3,1c4.2,1.7,4,5.3,2.9,8.4c-1.1,3.1-3.4,5.8-7.5,5c-1.8-0.3-3.1,0.1-4.3,1.6
	c-2.4,3-4.8,4-7.2-0.3c-1.3-2.3-4.6-0.2-6.1-2.4c-1.3,1.1-1.1,2.8-1.5,4.2c-2,9.1-1.6,18.1,2.2,26.7
	C100.9,175.2,102.8,179,107.4,181.2z M134.4,187.6c10.5,0,18-5.4,24.2-13.3c0.7-0.9,1.8-1.8,0.6-3.1c-1-1.1-1.7-0.2-2.7,0.2
	c-1.9,0.9-3.2-0.4-4.2-1.7c-1.4-1.7,0.4-2.8,1.2-3.9c1.1-1.7,2.7-1.6,4.4-0.6c3.6,2,4.4,1.5,4.4-2.7c0-2.2-0.4-4.4-1.7-6
	c-2.7-3.2-4.9-6.7-6.9-10.4c-2.5-4.6-8.8-4.3-11.7,0.1c-3.5,5.1-7.7,9-14,10.8c-2.5,0.7-5.7,0.2-7.5,2.3c-3.7,4.2-7,8.7-9.1,14
	c-0.8,2.1-0.4,3.7,1.3,5.2C118.9,184,125.9,187.6,134.4,187.6z M276.7,377.7c1.5,0.9,2.8-0.1,4.2-0.8c11-5.5,21.3-12.2,31.1-19.6
	c2.2-1.6,2.9-8.6,0.6-10.1c-2.3-1.5-4.3,1-6.1,2.3c-0.2,0.2-0.4,0.4-0.7,0.6c-6.3,4.6-12.1,10.1-19.3,13.4
	c-5.7,2.6-9.5,0.8-10.9-5.1c-2-8-3-16.1-0.7-24.2c0.8-2.8,0.1-3.3-2.5-3.7c-4-0.6-8-1.6-11.9-2.6c-4-1-4.7-0.5-3.7,3.4
	c1.8,7,3.6,14.1,5.5,21.1c1.8,6.9,3.5,13.8,7.1,20C270.7,375.3,272.3,378.7,276.7,377.7z M278.6,208.9c-4.6-0.2-4.7-1.6-2.5-4.4
	c3.8-4.8,5.7-10.6,6.6-16.6c0.5-3.4-0.3-4.6-4.1-3.7c-12.1,2.7-24.4,4.2-36.9,3.1c-3.8-0.3-5.2,1.2-4.7,4.9c0.6,4.5,1.2,9,3.6,13
	c1.2,1.9,1.3,4.3,3.7,5.8C254.3,216.8,268.2,216.4,278.6,208.9z M270.3,271.8c-6.2,6.9-11.8,13.9-18.8,19.5
	c-1.5,1.2-2.4,2.8-2.5,4.7c-0.2,7.6-0.6,15.2,2,22.5c0.5,1.4,0.6,3,2.4,3.7c8.1,2.8,16.2,5.6,25.5,4.9
	C270.2,309.2,270.4,290.6,270.3,271.8z M217.7,318.9c-2.9-0.3-6.7,0.1-9.5,3.7c-3,3.9-3.7,8.5-2.9,13c1.6,9.4,3.3,18.8,6.1,27.9
	c2.3,7.6,2.3,7.6,10.2,7.5c5.1,0,5.7-0.7,3.3-5.1c-3.5-6.5-5.8-13.3-7-20.5c-1.4-8.6-0.2-10.8,8.5-12.6c7.1-1.5,14.3-2.5,21.4-3.8
	c1.4-0.3,3.4-0.5,3.4-2.4c0-1.7-1.9-1.6-3.1-2.1C238.8,320.2,228.9,319.3,217.7,318.9z M161.2,382c2.3-6.6,3.2-13.3,3.8-20.1
	c0.1-1.6-0.2-4.4,1.4-4.3c4.5,0.3,1.9-2.7,2-3.9c0.1-1.9-0.8-3.5-3.3-3.5c-8.2,0.1-16.4,0-25.5,0c2.5,2.6-0.2,6.8,3.9,8.4
	c3.6,1.4,5.4,4.1,5.5,7.6C149.1,374.5,154.7,378.4,161.2,382z M253.3,236.7c-4.2,8.5-10.8,16.1-8.9,26.5c0.6,3,0.7,6,0.8,9.1
	c0.2,3.7,1.1,5.1,5.1,3.1c2.3-1.2,3.9-2.4,4.8-4.9c1.4-3.8,3-7.6,4.4-11.4c0.7-1.9,1-3.8,0-5.7C257,248.1,254.9,242.6,253.3,236.7z
	 M257.3,238.3c0.9,2.8,1.8,5.7,2.7,8.6c0.4,1.2,1.1,1.5,2.4,0.9c4.6-2.2,9.3-4.3,14-6.4c2.9-1.3,3.3-3.2,1.5-5.8
	c-3.6-5-9-6.9-14.6-8.5c-0.4-0.1-1-0.1-1.2,0.2c-2.3,2.8,0.7,8.2-4.7,9.7C257.3,236.9,257.4,237.7,257.3,238.3z M233,257
	c-5.5,4.5-10.7,6.6-16.5,7.4c-1,0.1-1.9,0.4-2.3,1.7c-2.1,7.8,0.5,12,8.6,13.5c1.5,0.3,3.1,0,4.5,0.4c2.1,0.6,2.8-0.2,3.1-2
	C231.2,271.4,232,264.8,233,257z M163.1,221.6c0,7.4,1.7,13.9,3.2,20.8c0.8-0.6,1.4-0.8,1.7-1.2c2-2,3.8-6.5,6.1-0.2
	c0.4,1.2,1.9,1.3,3.2,1.3c4,0.1,7-1.8,9.9-4.7C176.8,234.9,175.2,233.8,163.1,221.6z M193.2,232.9c-8.7-7.5-18-13.3-28.6-18.7
	c0.6,7.9,6.5,11,10.8,14.9C180.2,233.5,185.9,236.1,193.2,232.9z M153.5,381.9c-4.2-3.8-6.6-8.1-7.1-13.5c-0.2-1.9-1.1-3.8-1.9-5.5
	c-1-2-2.8-1.7-4.7-1.3c-2,0.5-2.1,1.9-1.9,3.5c0.4,3,0.7,6,1.3,9c1.5,7.6,1.5,7.6,9.5,7.6C150.2,381.7,151.8,381.9,153.5,381.9z
	 M184.2,382c-4.2-3.4-6.3-7.7-7.1-12.8c-0.3-1.9-0.9-3.8-1.6-5.6c-0.7-1.7-1.8-2.7-4.2-2.2c-2.4,0.6-3,1.6-2.7,3.7c0.4,3,0.5,6,1,9
	c1.2,7.7,1.3,7.7,9.2,7.5C180.6,381.7,182.4,381.9,184.2,382z M280.1,204.2c3.3-0.9,4.8-2,5.6-3.9c2.7-6.6,4.6-13.4,4.4-20.6
	c0-1.9-0.7-2.1-2.5-1.8c-4.3,0.9-8.6,1.5-13,2.1c-10.8,1.5-21.8,1.3-33,3.2c4.4,1.2,8.4,1.8,12.5,1.2c8.8-1.3,17.7-2.5,26.5-3.9
	c4.9-0.8,6,0,5.6,5.1C285.6,191.8,284.2,197.8,280.1,204.2z M211.6,269.2c-0.7-3.6-1.1-7.4-3.4-10.6c-1.1-1.6-2.5-3.3-4.8-2.5
	c-2.3,0.8-3.8,2.4-3.8,5.1c0,4.7,2.2,8.3,5.7,11.2c1.3,1.1,2.8,2.3,4.5,1.6C211.7,273.2,211.3,271.1,211.6,269.2z M326.6,372.5
	c2.7-1.3,3.4-3.2,3.6-5.4c0.4-5.9,0.8-11.8,1-17.7c0.1-2.7,0.5-6.5-3.2-6.4c-3.3,0.1-3.6,3.9-4.1,6.7c-0.1,0.6-0.1,1.2,0.1,1.8
	C326,358.3,328.2,365,326.6,372.5z M242.5,273.9c-0.5-3.8-1.5-7.9-3-11.9c-0.4-0.9-0.6-2.2-1.9-2.3c-1.8-0.1-1.7,1.6-1.9,2.6
	c-0.9,5-1.5,10.1-2.2,15.2c-0.1,0.8,0.1,1.5,0.9,1.9C237.2,280.9,242.5,277.5,242.5,273.9z M129.5,272.7c-0.7-1.5-0.4-3.7-3.6-1.8
	c-2.8,1.7-4.9,3.8-6.7,6.3c-1.1,1.6-1.8,3.5-0.2,4.9c1.7,1.4,3.8,1.6,5.8,0.1C128,279.9,128.6,276.4,129.5,272.7z M205.2,386.1
	c13.5,0.9,21.7,0.1,25.2-2.1C221.5,376.5,213.6,383.7,205.2,386.1z M135.7,219.9c0.9,3.6,2.3,6.9,2.4,10.3c0.2,4.7,1.2,8,6.6,8.2
	C145.8,230.5,142.5,224.6,135.7,219.9z M141.2,190c3.2,4.5,3.6,11.1,10.9,12.4c-2-5.1-1.9-10.3-3-15.4
	C146.4,188.1,144,188.9,141.2,190z M111.6,134.1c2.5,0.1,3.4,2.3,5.1,3.1c1.3,0.6,2.3,0.5,3.2-0.5c1.1-1.2,1.4-2.8,0.9-4.2
	c-0.4-1.1-1.5-1.8-2.9-1.2c-4.7,1.8-4.5-0.6-2.9-3.7c0.6-1.2,0.1-1.6-0.6-2.2c-0.7-0.5-1.3-0.6-1.9,0.2c-1.4,2.1-0.7,6-4.8,5.9
	c0.1,0.4,0.2,0.8,0.3,1.2C108.5,135.3,109.6,136.5,111.6,134.1z M246.3,241.9c3.2-5.3,4.3-8.1,4.1-10.8c-0.1-1.1,0.5-2.5-1.7-2.4
	c-5.1,0.2-7.3,3.4-5.3,8.1C244.2,238.7,244.7,240.6,246.3,241.9z M288.6,202.3c4.9-0.7,7.4-3.6,6.9-7.4c-0.2-1.2-0.6-2.4-1.9-2.8
	c-1.9-0.6-1.8,1.2-2.2,2.2C290.5,196.8,289.6,199.3,288.6,202.3z M142.9,199.2c-0.2,0-0.3-0.1-0.5-0.1c-0.1,0-0.2,0.1-0.2,0.2
	c-1.3,3.5-0.7,6,3.7,6.4c0.8,0.1,1.7,0.6,2.4,1.2c1.9,1.8,2.9,0.7,4-1.1C147.6,205.4,144.9,202.7,142.9,199.2z M133.2,384.5
	c1.8,0.3,3.4,0.7,5.2,0c-1-2.7-0.9-5.6-2.9-8.6C134.6,379,133.9,381.6,133.2,384.5z M247.2,285.4c3.3-1.3,4.4-3.5,4-6.1
	c-0.2-1.1-1.8-0.4-2.7,0C244.6,280.7,247.9,283.1,247.2,285.4z M276.1,245.8c-2.9,1.2-5.2,2.2-7.8,3.3
	C273.6,251.6,274.8,251.1,276.1,245.8z M256,227.7c-1.9-0.3-1.9,1.5-2.3,2.6c-0.7,2.1,1.4,2.1,2.5,2.4c2.3,0.6,1.7-1.5,1.8-2.6
	C258.2,228.8,257.9,227.5,256,227.7z M96.8,385.4c6.2,0,11.3,0,16.4,0C108.1,384.8,103,383.3,96.8,385.4z M106.8,135.7
	c-2.3-0.2-4.3-1-5.7,1.1c-0.4,0.7-0.1,1.6,0.6,1.9C104.1,139.5,105.3,137.9,106.8,135.7z M230.4,193.5c-1.1,5-1,5.2,2.1,8
	C232.7,198.6,231.8,196.2,230.4,193.5z M241,254.7c0.5-1.3,0.9-2.1,1.2-2.9c1.1-2.8,0.6-4-1.1-2.8C239,250.5,240,252.4,241,254.7z
	 M237.7,257c-0.1-0.2-0.2-0.6-0.3-0.7c-0.2-0.1-0.5,0.1-0.7,0.2c0.1,0.3,0.3,0.6,0.4,0.9C237.2,257.3,237.4,257.1,237.7,257z"/>
<path id="XMLID_310_" style="fill:#1D1D1D;" d="M185.9,72.1c6.1,0,9.9,6,7.3,11.8c-2.2,4.8-7.4,8.2-6.6,14.5
	c0.1,1.1-1.8,1.4-2.3,0.2c-1.8-3.9-5.5-4.2-8.9-5.2c-5.8-1.7-7.2-3.3-6.9-8.3c0.3-4.6,3.1-7.5,8.2-8.2c1.4-0.2,1.6-1.1,2.3-1.7
	C181.4,72.8,183,72.1,185.9,72.1z M171.3,85.4c0,0.3,0,0.6,0,0.9c0.3,2,10.8,7.2,12.6,6.2c0.3-0.1,0.4-0.4,0.6-0.7
	c1.8-2.8,3.8-5.5,5.4-8.3c1.9-3.3,0.6-7.2-2.7-8.2c-3.6-1.1-5.9,0.5-6.6,4.1c-0.4,1.9-0.8,2.3-2.6,1.5
	C174.3,79.3,171.3,81.4,171.3,85.4z"/>
<path id="XMLID_307_" style="fill:#1D1D1D;" d="M196.6,28.2c0-6.5,3.6-9,8.6-6.7c1.5,0.7,2.3-0.1,3.3-0.5c5.8-2,10.7-0.8,12.7,3.4
	c2.3,4.7,0.7,9-4.7,12.6c-2.8,1.9-6.2,3.4-7,7.3c-0.1,0.6-0.8,0.8-1.5,0.8c-0.9-0.1-1.4-0.7-1.3-1.5c0.9-5-3.1-6.9-6-9.4
	C198.5,32.3,196.5,30.3,196.6,28.2z M219,28.1c0-2-1-3.5-2.7-4.4c-2.4-1.2-4.9-1.2-7.3,0.4c-1.3,0.9-2.3,2.4-4.3,0.9
	c-1-0.7-2.1-3.2-4-0.8c-1.6,2-1.3,4,0.2,5.7c2.3,2.6,5.5,4.2,7.4,7.3c0.2,0.3,0.7,0.7,1.1,0.7C211.9,38.2,219,31,219,28.1z"/>
<path id="XMLID_304_" style="fill:#1D1D1D;" d="M175.9,29.5c-0.7,5.4-1.4,10.5-2,15.5c-0.1,0.8-0.4,1.5-1.2,1.7
	c-0.8,0.2-1.6-0.1-1.9-0.9c-1.5-4.7-5.8-5.2-9.6-6.4c-2.3-0.7-4.7-1.3-6.1-3.4c-1.4-2.1-1.7-4.6-0.5-6.9c1.3-2.6,3.8-3.5,6.5-3.2
	c1.8,0.2,3,0.1,4.4-1.3c2-2.1,4.2-4.4,7.4-2.9C176.1,23.4,175.6,26.8,175.9,29.5z M170.8,39.9c2.1-3.4,1.2-7.1,1.9-10.6
	c0.3-1.6,0.4-3.7-1.4-4.3c-2.1-0.8-3.8,1.2-4.3,2.6c-0.9,3-2.3,2.8-4.7,1.9c-2.1-0.7-4.8-1.2-5.5,1.9c-0.6,2.8,1.6,3.8,4,4.5
	C164.2,37,167.8,37.7,170.8,39.9z"/>
<path id="XMLID_303_" style="fill:#FFFFFF;" d="M183.2,347.3c-17.2,0-33.8,0-50.5,0c-12,0-23.9,2.3-35.9,1.8
	c-7.4-0.3-14.4-1.8-20.4-6.4c-4.6-3.5-8-7.8-8.3-13.9c10.2,11,22.9,11.6,36.2,9.2c4.1-0.7,6.9-4.2,9.7-7.3
	c13.9-15.2,21.5-33.7,27.3-53.1c4.2-14.1,7.5-28.4,6.5-43.3c-0.3-4.8-2.1-8.7-5.3-12.1c-2.1-2.2-4.4-4.3-6.2-6.6
	c-1.2-1.6-3-3.5-1.6-5.6c1.3-2,3.6-2.4,6.1-2.3c2.9,0.1,5.3,1.4,7.4,3.1c1.8,1.5,3.1,1.7,4.5-0.2c0.1-0.1,0.2-0.2,0.3-0.3
	c2.2-2,4.7-3.8,7.6-1.9c2.9,1.9,2.5,5.2,1.3,7.8c-2,4.6-2,9.3-1.2,13.9c2.1,11.3,4.5,22.5,7.3,33.6c2.9,11.7,4,23.5,5.3,35.4
	c1.4,12.8,3,25.6,5.8,38.1C179.7,340.6,181.2,343.8,183.2,347.3z"/>
<path id="XMLID_302_" style="fill:#FFFFFF;" d="M48.7,234.4c6-2.3,9-7.3,12.1-12.5c9.2-15.6,15.2-32.5,21-49.4
	c2.9-8.6,5.5-17.2,8.3-25.8c1.3-4,2.8-7.9,5.9-11.1c-0.7,4.6-2.4,9-2.8,13.7c-1.1,11.9,0.3,23,9.1,32.1c4,4.2,9,5.9,14.7,5.5
	c1.6-0.1,2.9,0.4,4.3,1c3.1,1.2,6.2,2.6,9.6,2.3c3.4-0.3,5.2,1.5,6.6,4.3c2.9,5.4,2.4,8.1-2.9,11.2c-3.4,2-3.8,4.5-3.3,8
	c1.3,7.3,3.9,14.3,4.3,21.8c0.4,6.8-3.3,10.1-10.4,9.2c-2.9-0.3-5.7-1.1-7.9-3.1c-1.6-1.4-2.4-0.9-3.5,0.7c-6.3,9-15,8.6-20.2-0.7
	c-1.2-2.1-2.1-1.7-3.3-0.2c-7.3,8.5-17.7,7.6-23.2-2.1c-0.8-1.4-1.4-1.8-3.1-1.1C57.6,240.8,53.4,239.7,48.7,234.4z"/>
<path id="XMLID_301_" style="fill:#39484B;" d="M224.1,174.5c2.4-3.3,4-7.7,9.6-6.5c1.4,0.3,1.6-1.2,1.5-2.3
	c-0.3-8.2,0.6-16.4-0.6-24.6c-0.9-6,0.2-12.1-1.1-18.2c-0.5-2.5,1.8-2.3,3.4-2.3c9.9,0.3,19.7,0.6,29.6,0.8c3.2,0.1,6.3,0.1,9.5-0.8
	c4-1.1,6.3,0.6,6.6,4.9c0.3,4.7,0.6,9.4,1,14c0.8,9.5,2.2,18.9,5.2,28c0.4,1.2,0.7,2.5,2.3,2.2c1.4-0.2,1.6-1.1,1.2-2.3
	c-0.4-1.2-1.3-3.3,0.4-3.4c2-0.2,4.2,0.9,5.2,3c0.8,1.6,0.4,3.1-1.5,4.2c-4.5,2.4-9.5,3.2-14.4,4.1c-15.3,2.8-30.7,3.3-46.2,2.8
	c-4-0.2-8.3-0.4-11.6-3.5L224.1,174.5z"/>
<path id="XMLID_300_" style="fill:#B8876D;" d="M107.4,181.2c-4.6-2.2-6.5-6-8.2-9.8c-3.9-8.6-4.2-17.6-2.2-26.7
	c0.3-1.5,0.2-3.1,1.5-4.2c1.5,2.2,4.9,0.2,6.1,2.4c2.4,4.3,4.8,3.4,7.2,0.3c1.2-1.5,2.5-2,4.3-1.6c4.1,0.8,6.4-1.9,7.5-5
	c1.1-3.1,1.3-6.7-2.9-8.4c-0.5-0.2-1.4-0.8-1.3-1c1.8-5-2.1-5.8-5.3-7.2c-3.1-1.3-1.1-3.3-0.3-4.8c1-2.2,3.2-3.6,3.4-6.7
	c0.1-2.4,2.8-4.1,5.7-4.4c2.8-0.2,4.3,1.4,5.3,3.5c0.7,1.6,1.2,2.9,3.3,3.2c0.7,0.1,1.9,1.1,1.9,1.8c0.4,8.2,8.4,7.5,12.9,10.1
	c7,4,12,9.2,16.1,15.8c3.4,5.5,4.9,11.7,5.8,18.1c0.1,0.6-0.5,1.4-1,2.5c-1.5-2.9-2.5-5.7-4.1-8.1c-3.9-6.2-9.8-9.3-16.4-12.4
	c-6.1-2.8-4.9,1.5-6.3,3.8c-1.5,2.6-2.6,5.5-5.7,6.8c-1,0.4-1.9,1.2-2.9,0.4c-0.9-0.8,0.1-1.7,0.2-2.5c0.1-0.7,0.5-1.4,0.6-2.2
	c0.1-0.8-0.2-1.5-1-1.9c-0.8-0.4-1.4,0.1-2,0.6c-7.7,7.7-14.7,15.9-20.1,25.4C107.6,172.7,107.2,176.7,107.4,181.2z"/>
<path id="XMLID_297_" style="fill:#F3C19A;" d="M134.4,187.6c-8.5,0-15.5-3.5-21.7-9.1c-1.7-1.5-2.1-3.1-1.3-5.2
	c2-5.3,5.4-9.8,9.1-14c1.8-2.1,5-1.6,7.5-2.3c6.3-1.8,10.6-5.7,14-10.8c2.9-4.4,9.2-4.7,11.7-0.1c2,3.7,4.2,7.2,6.9,10.4
	c1.4,1.6,1.7,3.8,1.7,6c0,4.2-0.8,4.7-4.4,2.7c-1.7-0.9-3.3-1-4.4,0.6c-0.7,1.1-2.5,2.2-1.2,3.9c1,1.3,2.3,2.6,4.2,1.7
	c0.9-0.5,1.6-1.4,2.7-0.2c1.2,1.3,0.1,2.3-0.6,3.1C152.4,182.1,144.9,187.6,134.4,187.6z M127.1,168.5c0.8,1.6,0.2,4.1,3.1,4.4
	c2.4,0.3,4-0.9,5.5-2.5c1-1,0.9-2-0.1-2.7c-2.1-1.4-3.6-4.3-6.9-3.4c-2.8,0.7-5.7,1.5-8.6,2c-1,0.2-1.8,0.1-1.9,1.3
	c-0.1,1.2,0.9,1.4,1.7,1.8C122.5,170.9,124.8,169.4,127.1,168.5z"/>
<path id="XMLID_296_" style="fill:#39484B;" d="M276.7,377.7c-4.4,0.9-6-2.4-7.6-5.2c-3.6-6.2-5.2-13.2-7.1-20
	c-1.9-7-3.7-14-5.5-21.1c-1-4-0.3-4.5,3.7-3.4c3.9,1,7.9,2,11.9,2.6c2.6,0.4,3.3,0.9,2.5,3.7c-2.3,8.1-1.2,16.2,0.7,24.2
	c1.5,5.9,5.3,7.7,10.9,5.1c7.2-3.3,13-8.8,19.3-13.4c0.2-0.2,0.4-0.4,0.7-0.6c1.9-1.3,3.8-3.8,6.1-2.3c2.3,1.5,1.6,8.4-0.6,10.1
	c-9.8,7.4-20.1,14-31.1,19.6C279.5,377.7,278.2,378.6,276.7,377.7z"/>
<path id="XMLID_292_" style="fill:#F3C19A;" d="M278.6,208.9c-10.4,7.5-24.3,7.9-34.2,2c-2.4-1.4-2.5-3.9-3.7-5.8
	c-2.4-4-3-8.5-3.6-13c-0.5-3.7,0.9-5.3,4.7-4.9c12.5,1.1,24.7-0.4,36.9-3.1c3.8-0.8,4.6,0.3,4.1,3.7c-0.9,6.1-2.8,11.8-6.6,16.6
	C273.9,207.2,274,208.6,278.6,208.9z M267.2,196.5c2.1-0.6,6,1.1,6-2.4c0-2.6-3.7-2.1-6-2.1c-2.3,0-5.3,0.3-5,3.1
	C262.5,197.8,265.4,196.1,267.2,196.5z M249.8,193c0,0-0.5-0.3-1.1-0.5c-2.9-0.9-5.9-0.7-8.8-0.1c-1,0.2-1.3,1.2-1,2.2
	c0.4,1.1,1.3,1.2,2.2,0.9c2.1-0.7,4-0.8,6.1,0C248.4,195.9,249.6,195.5,249.8,193z"/>
<path id="XMLID_291_" style="fill:#39484B;" d="M270.3,271.8c0.1,18.8-0.1,37.4,8.6,55.2c-9.4,0.7-17.5-2.1-25.5-4.9
	c-1.7-0.6-1.9-2.3-2.4-3.7c-2.6-7.3-2.3-14.9-2-22.5c0.1-1.9,1-3.6,2.5-4.7C258.6,285.7,264.1,278.7,270.3,271.8z"/>
<path id="XMLID_290_" style="fill:#39484B;" d="M217.7,318.9c11.2,0.4,21.1,1.3,30.4,5.4c1.2,0.5,3.1,0.5,3.1,2.1
	c-0.1,1.8-2.1,2.1-3.4,2.4c-7.1,1.3-14.3,2.3-21.4,3.8c-8.6,1.9-9.9,4-8.5,12.6c1.2,7.2,3.5,14.1,7,20.5c2.4,4.4,1.8,5.1-3.3,5.1
	c-7.9,0.1-7.9,0.1-10.2-7.5c-2.8-9.1-4.5-18.5-6.1-27.9c-0.8-4.5-0.1-9.1,2.9-13C211,319,214.8,318.6,217.7,318.9z"/>
<path id="XMLID_289_" style="fill:#FFFFFF;" d="M161.2,382c-6.5-3.6-12-7.5-12.2-15.8c-0.1-3.5-1.9-6.3-5.5-7.6
	c-4.1-1.5-1.4-5.7-3.9-8.4c9.1,0,17.3,0,25.5,0c2.5,0,3.4,1.6,3.3,3.5c-0.1,1.2,2.5,4.2-2,3.9c-1.6-0.1-1.3,2.7-1.4,4.3
	C164.3,368.7,163.5,375.4,161.2,382z"/>
<path id="XMLID_288_" style="fill:#39484B;" d="M248,319.9c-5-0.1-9.3-2.7-14-3.8c-2.4-0.6-2.1-3.3-2.2-5
	c-0.4-8.6-0.5-17.3,0.7-25.9c0.3-2.2,2-2.9,3.6-2.7c2.4,0.4,5.3-3,7.1,1.1c1.5,3.3,2.9,6.8,2.9,10.4c0,8.7,0,17.3,2,25.7L248,319.9z
	"/>
<path id="XMLID_287_" style="fill:#E2557D;" d="M253.3,236.7c1.5,6,3.6,11.4,6.3,16.6c1,1.9,0.7,3.8,0,5.7
	c-1.4,3.8-3.1,7.6-4.4,11.4c-0.9,2.5-2.5,3.7-4.8,4.9c-4,2-4.9,0.6-5.1-3.1c-0.1-3-0.3-6.1-0.8-9.1
	C242.5,252.7,249.1,245.2,253.3,236.7z"/>
<path id="XMLID_286_" style="fill:#B8876D;" d="M257.3,238.3c0-0.5,0-1.3,0.1-1.4c5.4-1.4,2.4-6.8,4.7-9.7c0.2-0.2,0.8-0.3,1.2-0.2
	c5.6,1.6,11,3.4,14.6,8.5c1.8,2.6,1.5,4.4-1.5,5.8c-4.7,2.1-9.3,4.2-14,6.4c-1.3,0.6-2,0.4-2.4-0.9
	C259.1,244,258.2,241.1,257.3,238.3z"/>
<path id="XMLID_285_" style="fill:#FFFFFF;" d="M233,257c-1,7.9-1.8,14.4-2.7,21c-0.2,1.8-1,2.6-3.1,2c-1.4-0.4-3-0.2-4.5-0.4
	c-8.1-1.4-10.7-5.6-8.6-13.5c0.4-1.4,1.3-1.6,2.3-1.7C222.3,263.6,227.4,261.4,233,257z"/>
<path id="XMLID_284_" style="fill:#FFFFFF;" d="M163.1,221.6c12.1,12.2,13.7,13.3,24.1,16.1c-2.9,2.8-5.9,4.8-9.9,4.7
	c-1.3,0-2.7-0.2-3.2-1.3c-2.3-6.3-4.1-1.8-6.1,0.2c-0.4,0.4-0.9,0.6-1.7,1.2C164.8,235.5,163.1,229,163.1,221.6z"/>
<path id="XMLID_283_" style="fill:#FFFFFF;" d="M193.2,232.9c-7.3,3.2-13,0.5-17.9-3.8c-4.3-3.9-10.2-7-10.8-14.9
	C175.2,219.7,184.5,225.4,193.2,232.9z"/>
<path id="XMLID_282_" style="fill:#FFFFFF;" d="M153.5,381.9c-1.6-0.1-3.3-0.2-4.9-0.2c-7.9,0-8,0.1-9.5-7.6c-0.6-3-0.9-6-1.3-9
	c-0.2-1.6,0-3,1.9-3.5c1.8-0.5,3.7-0.8,4.7,1.3c0.9,1.7,1.8,3.6,1.9,5.5C146.9,373.9,149.2,378.1,153.5,381.9z"/>
<path id="XMLID_281_" style="fill:#FFFFFF;" d="M184.2,382c-1.8-0.1-3.6-0.3-5.4-0.3c-7.9,0.1-8,0.2-9.2-7.5c-0.5-3-0.7-6-1-9
	c-0.3-2.1,0.3-3.1,2.7-3.7c2.4-0.6,3.5,0.4,4.2,2.2c0.8,1.8,1.3,3.7,1.6,5.6C177.9,374.3,180,378.6,184.2,382z"/>
<path id="XMLID_280_" style="fill:#B8876D;" d="M280.1,204.2c4.2-6.4,5.5-12.4,6.1-18.6c0.5-5.1-0.6-5.9-5.6-5.1
	c-8.8,1.4-17.7,2.7-26.5,3.9c-4.1,0.6-8.2,0-12.5-1.2c11.2-1.9,22.2-1.7,33-3.2c4.3-0.6,8.7-1.2,13-2.1c1.8-0.4,2.4-0.2,2.5,1.8
	c0.2,7.2-1.8,14-4.4,20.6C284.9,202.2,283.4,203.3,280.1,204.2z"/>
<path id="XMLID_279_" style="fill:#F3C19A;" d="M211.6,269.2c-0.2,1.9,0.1,4-1.8,4.9c-1.7,0.7-3.2-0.5-4.5-1.6
	c-3.5-2.9-5.7-6.5-5.7-11.2c0-2.6,1.5-4.3,3.8-5.1c2.3-0.8,3.7,0.9,4.8,2.5C210.5,261.8,210.9,265.6,211.6,269.2z"/>
<path id="XMLID_278_" style="fill:#39484B;" d="M326.6,372.5c1.6-7.5-0.6-14.2-2.7-20.9c-0.2-0.6-0.2-1.2-0.1-1.8
	c0.5-2.8,0.8-6.7,4.1-6.7c3.6-0.1,3.3,3.7,3.2,6.4c-0.2,5.9-0.6,11.8-1,17.7C330,369.3,329.3,371.2,326.6,372.5z"/>
<path id="XMLID_277_" style="fill:#39484B;" d="M242.5,273.9c0,3.6-5.3,7-8.1,5.6c-0.8-0.4-1-1.1-0.9-1.9c0.7-5.1,1.3-10.1,2.2-15.2
	c0.2-1,0.2-2.7,1.9-2.6c1.3,0,1.6,1.3,1.9,2.3C241,266,242,270,242.5,273.9z"/>
<path id="XMLID_276_" style="fill:#B8876D;" d="M263.7,252.1c3,0.1,7.3-0.2,8.3,2c1.3,2.6-2.3,5.2-4.1,7.5c-2.3,3-4.9,5.9-8.5,8
	c0.5-6.2,6-10.9,4.1-17.3L263.7,252.1z"/>
<path id="XMLID_275_" style="fill:#F3C19A;" d="M129.5,272.7c-1,3.7-1.5,7.2-4.7,9.6c-2,1.5-4.1,1.3-5.8-0.1
	c-1.6-1.4-0.9-3.3,0.2-4.9c1.8-2.5,3.9-4.6,6.7-6.3C129.2,269,128.8,271.2,129.5,272.7z"/>
<path id="XMLID_274_" style="fill:#39484B;" d="M205.2,386.1c8.3-2.4,16.2-9.6,25.2-2.1C226.9,386.1,218.7,386.9,205.2,386.1z"/>
<path id="XMLID_273_" style="fill:#FFFFFF;" d="M135.7,219.9c6.8,4.7,10.1,10.5,9.1,18.5c-5.4-0.2-6.5-3.5-6.6-8.2
	C138,226.9,136.6,223.6,135.7,219.9z"/>
<path id="XMLID_272_" style="fill:#FFFFFF;" d="M141.2,190c2.9-1.1,5.2-2,7.9-3c1.1,5.1,1,10.3,3,15.4
	C144.8,201.1,144.4,194.5,141.2,190z"/>
<path id="XMLID_271_" style="fill:#E2557D;" d="M111.6,134.1c-2,2.4-3.1,1.2-3.6-1.4c-0.1-0.4-0.2-0.8-0.3-1.2
	c4.1,0.1,3.4-3.8,4.8-5.9c0.6-0.9,1.2-0.8,1.9-0.2c0.7,0.6,1.2,1,0.6,2.2c-1.5,3.1-1.7,5.4,2.9,3.7c1.4-0.5,2.5,0.2,2.9,1.2
	c0.5,1.4,0.2,3-0.9,4.2c-0.9,1-1.9,1.2-3.2,0.5C115,136.4,114.1,134.3,111.6,134.1z"/>
<path id="XMLID_270_" style="fill:#B8876D;" d="M246.3,241.9c-1.6-1.4-2.1-3.3-2.8-5c-2-4.8,0.1-7.9,5.3-8.1
	c2.1-0.1,1.6,1.3,1.7,2.4C250.6,233.8,249.5,236.6,246.3,241.9z"/>
<path id="XMLID_269_" style="fill:#B8876D;" d="M266.3,269.6c-3,5.6-7,10.3-12.2,15.1c0.4-8.8,6.4-11.8,12.1-15.2L266.3,269.6z"/>
<path id="XMLID_268_" style="fill:#F3C19A;" d="M288.6,202.3c1-2.9,1.8-5.5,2.8-8c0.4-1,0.3-2.7,2.2-2.2c1.3,0.4,1.7,1.5,1.9,2.8
	C296.1,198.6,293.5,201.6,288.6,202.3z"/>
<path id="XMLID_267_" style="fill:#F3C19A;" d="M142.9,199.2c2.1,3.5,4.7,6.2,9.3,6.6c-1.1,1.8-2.1,2.9-4,1.1
	c-0.6-0.6-1.5-1.2-2.4-1.2c-4.4-0.4-4.9-2.8-3.7-6.4c0-0.1,0.1-0.2,0.2-0.2C142.6,199.1,142.7,199.2,142.9,199.2z"/>
<path id="XMLID_266_" style="fill:#FFFFFF;" d="M133.2,384.5c0.8-2.9,1.5-5.4,2.3-8.6c1.9,3,1.8,6,2.9,8.6
	C136.5,385.2,134.9,384.8,133.2,384.5z"/>
<path id="XMLID_265_" style="fill:#E2557D;" d="M247.2,285.4c0.7-2.3-2.6-4.7,1.3-6.2c1-0.4,2.6-1,2.7,0
	C251.6,281.9,250.5,284.1,247.2,285.4z"/>
<path id="XMLID_264_" style="fill:#39484B;" d="M276.1,245.8c-1.2,5.3-2.5,5.8-7.8,3.3C270.9,247.9,273.2,247,276.1,245.8z"/>
<path id="XMLID_263_" style="fill:#E2557D;" d="M256,227.7c1.9-0.1,2.2,1.1,2,2.4c-0.2,1.1,0.5,3.2-1.8,2.6c-1-0.3-3.1-0.2-2.5-2.4
	C254.1,229.1,254.1,227.4,256,227.7z"/>
<path id="XMLID_262_" style="fill:#FFFFFF;" d="M96.8,385.4c6.2-2.2,11.3-0.7,16.4,0C108.1,385.4,103,385.4,96.8,385.4z"/>
<path id="XMLID_261_" style="fill:#E2557D;" d="M106.8,135.7c-1.5,2.2-2.7,3.9-5,3c-0.8-0.3-1-1.2-0.6-1.9
	C102.4,134.6,104.4,135.4,106.8,135.7z"/>
<path id="XMLID_260_" style="fill:#F3C19A;" d="M230.4,193.5c1.5,2.7,2.4,5.1,2.1,8C229.3,198.7,229.3,198.4,230.4,193.5z"/>
<path id="XMLID_259_" style="fill:#B8876D;" d="M241,254.7c-0.9-2.3-1.9-4.1,0.1-5.7c1.7-1.3,2.2-0.1,1.1,2.8
	C241.9,252.6,241.5,253.4,241,254.7z"/>
<path id="XMLID_258_" style="fill:#39484B;" d="M239.8,245c0-1.3-0.3-2.7,1.1-4c1.3,0.8,2.1,2.2,1.8,3.5
	C242.4,245.4,240.8,244.8,239.8,245L239.8,245z"/>
<path id="XMLID_257_" style="fill:#39484B;" d="M237.7,257c-0.2,0.2-0.4,0.3-0.6,0.4c-0.1-0.3-0.3-0.6-0.4-0.9
	c0.2-0.1,0.5-0.3,0.7-0.2C237.5,256.4,237.5,256.7,237.7,257z"/>
<path id="XMLID_256_" style="fill:#B8876D;" d="M267.2,268.7c0.1-0.4,0.1-0.8,0.2-1.2c0.1,0,0.3,0.1,0.4,0.1
	C267.6,268,267.4,268.4,267.2,268.7C267.2,268.7,267.2,268.7,267.2,268.7z"/>
<path id="XMLID_255_" style="fill:#39484B;" d="M239.8,244.9c-0.1,0.1-0.1,0.3-0.2,0.4C239.7,245.2,239.7,245.1,239.8,244.9
	C239.8,245,239.8,244.9,239.8,244.9z"/>
<path id="XMLID_254_" style="fill:#B8876D;" d="M263.6,252.3c-0.2-0.1-0.4-0.3-0.6-0.4c0.1-0.1,0.3-0.2,0.3-0.2
	c0.2,0.2,0.3,0.4,0.4,0.5C263.7,252.1,263.6,252.3,263.6,252.3z"/>
<path id="XMLID_253_" style="fill:#B8876D;" d="M266.2,269.5c0.1-0.6,0.3-1,1-0.8c0,0,0,0,0,0c-0.3,0.3-0.6,0.6-0.9,0.9
	C266.3,269.6,266.2,269.5,266.2,269.5z"/>
<path id="XMLID_252_" style="fill:#39484B;" d="M248.1,319.8c0.1,0.2,0.2,0.3,0.4,0.5c-0.2-0.1-0.3-0.2-0.5-0.4
	C248,319.9,248.1,319.8,248.1,319.8z"/>
<path id="XMLID_251_" style="fill:#39484B;" d="M224.4,174.7c-0.2,0.1-0.4,0.2-0.5,0.3c0.1-0.2,0.2-0.4,0.3-0.5
	C224.1,174.5,224.4,174.7,224.4,174.7z"/>
<path id="XMLID_250_" style="fill:#E2557D;" d="M171.3,85.4c-0.1-4,2.9-6.1,6.6-4.5c1.8,0.8,2.3,0.4,2.6-1.5c0.7-3.6,3-5.2,6.6-4.1
	c3.3,1,4.6,4.9,2.7,8.2c-1.6,2.9-3.6,5.6-5.4,8.3c-0.2,0.2-0.4,0.5-0.6,0.7c-1.8,0.9-12.2-4.3-12.6-6.2
	C171.3,86,171.3,85.7,171.3,85.4z"/>
<path id="XMLID_249_" style="fill:#E2557D;" d="M219,28.1c0,2.9-7.1,10.1-9.7,9.8c-0.4,0-0.9-0.4-1.1-0.7c-1.9-3-5.1-4.7-7.4-7.3
	c-1.5-1.8-1.8-3.7-0.2-5.7c1.9-2.4,3,0.1,4,0.8c2,1.5,3-0.1,4.3-0.9c2.3-1.6,4.8-1.6,7.3-0.4C218,24.6,219,26.1,219,28.1z"/>
<path id="XMLID_248_" style="fill:#E2557D;" d="M170.8,39.9c-3-2.2-6.6-2.9-10-4c-2.3-0.7-4.6-1.7-4-4.5c0.7-3.1,3.4-2.6,5.5-1.9
	c2.4,0.8,3.8,1.1,4.7-1.9c0.4-1.3,2.2-3.3,4.3-2.6c1.8,0.7,1.7,2.7,1.4,4.3C172,32.8,172.9,36.5,170.8,39.9z"/>
<path id="XMLID_247_" style="fill:#1D1D1D;" d="M127.1,168.5c-2.3,0.9-4.6,2.4-7.3,1c-0.8-0.4-1.7-0.7-1.7-1.8
	c0.1-1.2,0.9-1.2,1.9-1.3c2.9-0.6,5.7-1.3,8.6-2c3.3-0.9,4.8,2,6.9,3.4c1,0.7,1.1,1.6,0.1,2.7c-1.5,1.6-3.1,2.8-5.5,2.5
	C127.3,172.5,127.9,170.1,127.1,168.5z"/>
<path id="XMLID_245_" style="fill:#1D1D1D;" d="M267.2,196.5c-1.8-0.5-4.8,1.2-5-1.4c-0.2-2.8,2.7-3.1,5-3.1c2.3,0,6-0.5,6,2.1
	C273.2,197.6,269.3,195.9,267.2,196.5z"/>
<path id="XMLID_244_" style="fill:#1D1D1D;" d="M249.8,193c-0.3,2.5-1.4,2.9-2.7,2.4c-2.1-0.7-4.1-0.7-6.1,0
	c-0.9,0.3-1.8,0.2-2.2-0.9c-0.3-1,0-2,1-2.2c2.9-0.6,5.9-0.7,8.8,0.1C249.3,192.7,249.8,193,249.8,193z"/>
</svg>
